{
    "$schema": "https://github.com/fastfetch-cli/fastfetch/raw/dev/doc/json_schema.json",
    "logo": {
        "type": "small",
        "padding": {
            "top": 1,
            "left": 1,
            "right": 2
        }
    },
    "display": {
        "key": {
            "width": 10
        },
        "bar": {
            "charElapsed": "=",
            "charTotal": "-",
            "width": 11
        },
        "percent": {
            "type": 11
        }
    },
    "modules": [
        "title",
        {
            "type": "os",
            "key": "{icon} OS",
        },
        {
            "type": "wm",
            "key": " DE/WM",
        },
        "separator",
        "memory",
        "swap",
        {
            "type": "disk",
            "folders": "/home",
            "key": "/home"
        },
        {
            "type": "disk",
            "folders": "/ssd",
            "key": "/ssd"
        },
        {
            "type": "disk",
            "folders": "/hdd",
            "key": "/hdd"
        },
        {
            "type": "battery",
            "key": "Battery"
        },
        {
            "type": "colors",
            "paddingLeft": 10,
            "symbol": "circle"
        }
    ]
}
